EESchema Schematic File Version 4
LIBS:Input_selector-cache
EELAYER 29 0
EELAYER END
$Descr A3 16535 11693
encoding utf-8
Sheet 1 1
Title ""
Date ""
Rev ""
Comp ""
Comment1 ""
Comment2 ""
Comment3 ""
Comment4 ""
$EndDescr
$Comp
L Input_selector-rescue:RT42xxxx-Relay K1
U 1 1 5BE13C95
P 5700 4600
F 0 "K1" H 5071 4554 50  0000 R CNN
F 1 "RT42xxxx" H 5071 4645 50  0001 R CNN
F 2 "Relay_THT:Relay_DPDT_Schrack-RT2-FormC_RM5mm" H 5700 4600 50  0001 C CNN
F 3 "http://www.te.com/commerce/DocumentDelivery/DDEController?Action=showdoc&DocId=Data+Sheet%7FRT2%7F1014%7Fpdf%7FEnglish%7FENG_DS_RT2_1014.pdf%7F6-1393243-3" H 6350 4750 50  0001 C CNN
	1    5700 4600
	1    0    0    1   
$EndComp
$Comp
L Input_selector-rescue:Conn_Coaxial_x2-Connector J3
U 1 1 5BE13C9C
P 5900 3700
F 0 "J3" V 6137 3630 50  0000 C CNN
F 1 "IN1" V 6046 3630 50  0000 C CNN
F 2 "MyLibrary:Dual_RCA" H 5900 3600 50  0001 C CNN
F 3 " ~" H 5900 3600 50  0001 C CNN
	1    5900 3700
	0    -1   -1   0   
$EndComp
Wire Wire Line
	6000 3900 6000 4300
Wire Wire Line
	6000 4300 6100 4300
Wire Wire Line
	5800 3900 5800 4300
Wire Wire Line
	5800 4300 5700 4300
$Comp
L Input_selector-rescue:D-Device D2
U 1 1 5BE13CA7
P 4700 4600
F 0 "D2" V 4654 4679 50  0000 L CNN
F 1 "D" V 4745 4679 50  0000 L CNN
F 2 "Diode_SMD:D_SMA" H 4700 4600 50  0001 C CNN
F 3 "~" H 4700 4600 50  0001 C CNN
	1    4700 4600
	0    1    1    0   
$EndComp
Wire Wire Line
	5300 4900 4700 4900
Wire Wire Line
	4700 4900 4700 4750
Wire Wire Line
	5300 4300 4700 4300
Wire Wire Line
	4700 4300 4700 4450
$Comp
L Input_selector-rescue:GND-power #PWR0101
U 1 1 5BE13CB2
P 6300 3900
F 0 "#PWR0101" H 6300 3650 50  0001 C CNN
F 1 "GND" H 6305 3727 50  0000 C CNN
F 2 "" H 6300 3900 50  0001 C CNN
F 3 "" H 6300 3900 50  0001 C CNN
	1    6300 3900
	1    0    0    -1  
$EndComp
Wire Wire Line
	6300 3900 6300 3700
Wire Wire Line
	6300 3700 6200 3700
$Comp
L Input_selector-rescue:RT42xxxx-Relay K2
U 1 1 5BE13EC4
P 7500 4600
F 0 "K2" H 6871 4554 50  0000 R CNN
F 1 "RT42xxxx" H 6871 4645 50  0001 R CNN
F 2 "Relay_THT:Relay_DPDT_Schrack-RT2-FormC_RM5mm" H 7500 4600 50  0001 C CNN
F 3 "http://www.te.com/commerce/DocumentDelivery/DDEController?Action=showdoc&DocId=Data+Sheet%7FRT2%7F1014%7Fpdf%7FEnglish%7FENG_DS_RT2_1014.pdf%7F6-1393243-3" H 8150 4750 50  0001 C CNN
	1    7500 4600
	1    0    0    1   
$EndComp
$Comp
L Input_selector-rescue:Conn_Coaxial_x2-Connector J4
U 1 1 5BE13ECB
P 7700 3700
F 0 "J4" V 7937 3630 50  0000 C CNN
F 1 "IN2" V 7846 3630 50  0000 C CNN
F 2 "MyLibrary:Dual_RCA" H 7700 3600 50  0001 C CNN
F 3 " ~" H 7700 3600 50  0001 C CNN
	1    7700 3700
	0    -1   -1   0   
$EndComp
Wire Wire Line
	7800 3900 7800 4300
Wire Wire Line
	7800 4300 7900 4300
Wire Wire Line
	7600 3900 7600 4300
Wire Wire Line
	7600 4300 7500 4300
$Comp
L Input_selector-rescue:D-Device D3
U 1 1 5BE13ED6
P 6500 4600
F 0 "D3" V 6454 4679 50  0000 L CNN
F 1 "D" V 6545 4679 50  0000 L CNN
F 2 "Diode_SMD:D_SMA" H 6500 4600 50  0001 C CNN
F 3 "~" H 6500 4600 50  0001 C CNN
	1    6500 4600
	0    1    1    0   
$EndComp
Wire Wire Line
	7100 4900 6500 4900
Wire Wire Line
	6500 4900 6500 4750
Wire Wire Line
	7100 4300 6500 4300
Wire Wire Line
	6500 4300 6500 4450
$Comp
L Input_selector-rescue:GND-power #PWR0102
U 1 1 5BE13EE1
P 8100 3900
F 0 "#PWR0102" H 8100 3650 50  0001 C CNN
F 1 "GND" H 8105 3727 50  0000 C CNN
F 2 "" H 8100 3900 50  0001 C CNN
F 3 "" H 8100 3900 50  0001 C CNN
	1    8100 3900
	1    0    0    -1  
$EndComp
Wire Wire Line
	8100 3900 8100 3700
Wire Wire Line
	8100 3700 8000 3700
$Comp
L Input_selector-rescue:RT42xxxx-Relay K3
U 1 1 5BE14243
P 9300 4600
F 0 "K3" H 8671 4554 50  0000 R CNN
F 1 "RT42xxxx" H 8671 4645 50  0001 R CNN
F 2 "Relay_THT:Relay_DPDT_Schrack-RT2-FormC_RM5mm" H 9300 4600 50  0001 C CNN
F 3 "http://www.te.com/commerce/DocumentDelivery/DDEController?Action=showdoc&DocId=Data+Sheet%7FRT2%7F1014%7Fpdf%7FEnglish%7FENG_DS_RT2_1014.pdf%7F6-1393243-3" H 9950 4750 50  0001 C CNN
	1    9300 4600
	1    0    0    1   
$EndComp
$Comp
L Input_selector-rescue:Conn_Coaxial_x2-Connector J5
U 1 1 5BE1424A
P 9500 3700
F 0 "J5" V 9737 3630 50  0000 C CNN
F 1 "IN3" V 9646 3630 50  0000 C CNN
F 2 "MyLibrary:Dual_RCA" H 9500 3600 50  0001 C CNN
F 3 " ~" H 9500 3600 50  0001 C CNN
	1    9500 3700
	0    -1   -1   0   
$EndComp
Wire Wire Line
	9600 3900 9600 4300
Wire Wire Line
	9600 4300 9700 4300
Wire Wire Line
	9400 3900 9400 4300
Wire Wire Line
	9400 4300 9300 4300
$Comp
L Input_selector-rescue:D-Device D4
U 1 1 5BE14255
P 8300 4600
F 0 "D4" V 8254 4679 50  0000 L CNN
F 1 "D" V 8345 4679 50  0000 L CNN
F 2 "Diode_SMD:D_SMA" H 8300 4600 50  0001 C CNN
F 3 "~" H 8300 4600 50  0001 C CNN
	1    8300 4600
	0    1    1    0   
$EndComp
Wire Wire Line
	8900 4900 8300 4900
Wire Wire Line
	8300 4900 8300 4750
Wire Wire Line
	8900 4300 8300 4300
Wire Wire Line
	8300 4300 8300 4450
$Comp
L Input_selector-rescue:GND-power #PWR0103
U 1 1 5BE14260
P 9900 3900
F 0 "#PWR0103" H 9900 3650 50  0001 C CNN
F 1 "GND" H 9905 3727 50  0000 C CNN
F 2 "" H 9900 3900 50  0001 C CNN
F 3 "" H 9900 3900 50  0001 C CNN
	1    9900 3900
	1    0    0    -1  
$EndComp
Wire Wire Line
	9900 3900 9900 3700
Wire Wire Line
	9900 3700 9800 3700
$Comp
L Input_selector-rescue:RT42xxxx-Relay K4
U 1 1 5BE14A00
P 11100 4600
F 0 "K4" H 10471 4554 50  0000 R CNN
F 1 "RT42xxxx" H 10471 4645 50  0001 R CNN
F 2 "Relay_THT:Relay_DPDT_Schrack-RT2-FormC_RM5mm" H 11100 4600 50  0001 C CNN
F 3 "http://www.te.com/commerce/DocumentDelivery/DDEController?Action=showdoc&DocId=Data+Sheet%7FRT2%7F1014%7Fpdf%7FEnglish%7FENG_DS_RT2_1014.pdf%7F6-1393243-3" H 11750 4750 50  0001 C CNN
	1    11100 4600
	1    0    0    1   
$EndComp
$Comp
L Input_selector-rescue:Conn_Coaxial_x2-Connector J6
U 1 1 5BE14A07
P 11300 3700
F 0 "J6" V 11537 3630 50  0000 C CNN
F 1 "IN4" V 11446 3630 50  0000 C CNN
F 2 "MyLibrary:Dual_RCA" H 11300 3600 50  0001 C CNN
F 3 " ~" H 11300 3600 50  0001 C CNN
	1    11300 3700
	0    -1   -1   0   
$EndComp
Wire Wire Line
	11400 3900 11400 4300
Wire Wire Line
	11400 4300 11500 4300
Wire Wire Line
	11200 3900 11200 4300
Wire Wire Line
	11200 4300 11100 4300
$Comp
L Input_selector-rescue:D-Device D5
U 1 1 5BE14A12
P 10100 4600
F 0 "D5" V 10054 4679 50  0000 L CNN
F 1 "D" V 10145 4679 50  0000 L CNN
F 2 "Diode_SMD:D_SMA" H 10100 4600 50  0001 C CNN
F 3 "~" H 10100 4600 50  0001 C CNN
	1    10100 4600
	0    1    1    0   
$EndComp
Wire Wire Line
	10700 4900 10100 4900
Wire Wire Line
	10100 4900 10100 4750
Wire Wire Line
	10700 4300 10100 4300
Wire Wire Line
	10100 4300 10100 4450
$Comp
L Input_selector-rescue:GND-power #PWR0104
U 1 1 5BE14A1D
P 11700 3900
F 0 "#PWR0104" H 11700 3650 50  0001 C CNN
F 1 "GND" H 11705 3727 50  0000 C CNN
F 2 "" H 11700 3900 50  0001 C CNN
F 3 "" H 11700 3900 50  0001 C CNN
	1    11700 3900
	1    0    0    -1  
$EndComp
Wire Wire Line
	11700 3900 11700 3700
Wire Wire Line
	11700 3700 11600 3700
Wire Wire Line
	11200 5100 11200 4900
Wire Wire Line
	11200 5100 9400 5100
Wire Wire Line
	9400 5100 9400 4900
Wire Wire Line
	9400 5100 7600 5100
Wire Wire Line
	7600 5100 7600 4900
Connection ~ 9400 5100
Wire Wire Line
	7600 5100 5800 5100
Wire Wire Line
	5800 5100 5800 4900
Connection ~ 7600 5100
Wire Wire Line
	11600 5300 11600 4900
Wire Wire Line
	11600 5300 9800 5300
Wire Wire Line
	9800 5300 9800 4900
Wire Wire Line
	9800 5300 8000 5300
Wire Wire Line
	8000 5300 8000 4900
Connection ~ 9800 5300
Wire Wire Line
	8000 5300 6200 5300
Wire Wire Line
	6200 5300 6200 4900
Connection ~ 8000 5300
$Comp
L Input_selector-rescue:Conn_01x02_Male-Connector J1
U 1 1 5BE2C402
P 3000 3550
F 0 "J1" H 3106 3728 50  0000 C CNN
F 1 "VIN" H 3106 3637 50  0000 C CNN
F 2 "Connector_Molex:Molex_KK-254_AE-6410-02A_1x02_P2.54mm_Vertical" H 3000 3550 50  0001 C CNN
F 3 "~" H 3000 3550 50  0001 C CNN
	1    3000 3550
	1    0    0    -1  
$EndComp
$Comp
L Input_selector-rescue:GNDPWR-power #PWR0109
U 1 1 5BE39A3F
P 5300 5450
F 0 "#PWR0109" H 5300 5250 50  0001 C CNN
F 1 "GNDPWR" H 5304 5296 50  0000 C CNN
F 2 "" H 5300 5400 50  0001 C CNN
F 3 "" H 5300 5400 50  0001 C CNN
	1    5300 5450
	1    0    0    -1  
$EndComp
Wire Wire Line
	5300 5450 5300 5400
Connection ~ 5300 4900
Connection ~ 5300 5400
Wire Wire Line
	5300 5400 5300 4900
Wire Wire Line
	5300 5400 7100 5400
Wire Wire Line
	7100 5400 7100 4900
Connection ~ 7100 4900
Wire Wire Line
	7100 5400 8900 5400
Wire Wire Line
	8900 5400 8900 4900
Connection ~ 7100 5400
Connection ~ 8900 4900
Wire Wire Line
	8900 5400 10700 5400
Wire Wire Line
	10700 5400 10700 4900
Connection ~ 8900 5400
Connection ~ 10700 4900
$Comp
L Input_selector-rescue:Conn_01x06_Male-Connector J2
U 1 1 5BE6D48D
P 3000 2800
F 0 "J2" H 3106 3178 50  0000 C CNN
F 1 "SWITCH" H 3106 3087 50  0000 C CNN
F 2 "Connector_Molex:Molex_KK-254_AE-6410-06A_1x06_P2.54mm_Vertical" H 3000 2800 50  0001 C CNN
F 3 "~" H 3000 2800 50  0001 C CNN
	1    3000 2800
	1    0    0    -1  
$EndComp
Wire Wire Line
	3200 3100 3800 3100
Wire Wire Line
	3200 3000 5300 3000
Wire Wire Line
	5300 3000 5300 4300
Connection ~ 5300 4300
Wire Wire Line
	3200 2900 7100 2900
Wire Wire Line
	7100 2900 7100 4300
Connection ~ 7100 4300
Wire Wire Line
	3200 2800 8900 2800
Wire Wire Line
	8900 2800 8900 4300
Connection ~ 8900 4300
Wire Wire Line
	3200 2700 10700 2700
Wire Wire Line
	10700 2700 10700 4300
Connection ~ 10700 4300
$Comp
L Connector:Conn_01x03_Male J8
U 1 1 5CF01E6B
P 12300 5200
F 0 "J8" H 12272 5132 50  0000 R CNN
F 1 "OUT" H 12272 5223 50  0000 R CNN
F 2 "Connector_Molex:Molex_KK-254_AE-6410-03A_1x03_P2.54mm_Vertical" H 12300 5200 50  0001 C CNN
F 3 "~" H 12300 5200 50  0001 C CNN
	1    12300 5200
	-1   0    0    1   
$EndComp
$Comp
L Input_selector-rescue:GND-power #PWR0106
U 1 1 5CF025C5
P 11950 5450
F 0 "#PWR0106" H 11950 5200 50  0001 C CNN
F 1 "GND" H 11955 5277 50  0000 C CNN
F 2 "" H 11950 5450 50  0001 C CNN
F 3 "" H 11950 5450 50  0001 C CNN
	1    11950 5450
	1    0    0    -1  
$EndComp
Wire Wire Line
	11950 5450 11950 5200
Wire Wire Line
	11950 5200 12100 5200
Wire Wire Line
	12100 5300 11600 5300
Wire Wire Line
	3200 3550 3800 3550
Wire Wire Line
	3800 3550 3800 3100
$Comp
L Input_selector-rescue:GNDPWR-power #PWR0107
U 1 1 5CF468D8
P 3250 3850
F 0 "#PWR0107" H 3250 3650 50  0001 C CNN
F 1 "GNDPWR" H 3254 3696 50  0000 C CNN
F 2 "" H 3250 3800 50  0001 C CNN
F 3 "" H 3250 3800 50  0001 C CNN
	1    3250 3850
	1    0    0    -1  
$EndComp
Wire Wire Line
	3250 3850 3250 3650
Wire Wire Line
	3250 3650 3200 3650
Connection ~ 11600 5300
Wire Wire Line
	11200 5100 12100 5100
Connection ~ 11200 5100
$EndSCHEMATC
